docs - 15 Hat Matrix and Residuals in R
…
15.5 The broom package

The broom package has a wonderful function called augment(). This function sets up our data so that it’s super easy to see what we need.

library(broom)
augment(mylm)

# A tibble: 32 × 10
   .rownames        mpg  disp    wt .fitted .resid   .hat .sigma .cooksd .std.…¹
   <chr>          <dbl> <dbl> <dbl>   <dbl>  <dbl>  <dbl>  <dbl>   <dbl>   <dbl>
 1 Mazda RX4       21    160   2.62    23.3 -2.35  0.0434   2.93 0.0102   -0.822
 2 Mazda RX4 Wag   21    160   2.88    22.5 -1.49  0.0455   2.95 0.00435  -0.523
 3 Datsun 710      22.8  108   2.32    25.3 -2.47  0.0631   2.93 0.0172   -0.876
 4 Hornet 4 Drive  21.4  258   3.22    19.6  1.79  0.0388   2.95 0.00524   0.624
 5 Hornet Sporta…  18.7  360   3.44    17.1  1.65  0.141    2.95 0.0203    0.609
 6 Valiant         18.1  225   3.46    19.4 -1.28  0.0441   2.96 0.00309  -0.448
 7 Duster 360      14.3  360   3.57    16.6 -2.32  0.115    2.93 0.0309   -0.845
 8 Merc 240D       24.4  147.  3.19    21.7  2.73  0.0964   2.92 0.0344    0.984
 9 Merc 230        22.8  141.  3.15    21.9  0.890 0.0988   2.96 0.00378   0.322
10 Merc 280        19.2  168.  3.44    20.5 -1.26  0.110    2.96 0.00869  -0.459
# … with 22 more rows, and abbreviated variable name ¹​.std.resid
…
